Examine model outputs • tiDML
…
glance() returns the model settings

glance(fit_rf)
#> # A tibble: 1 × 8
#>   n_obs n_folds vcov_type treatment_type estimate std_error conf_low conf_high
#>   <int>   <int> <chr>     <chr>             <dbl>     <dbl>    <dbl>     <dbl>
#> 1   500       5 HC2       binary_factor      207.      209.    -203.      616.

augment() returns the original data, predicted values, and
residuals

augment(fit_rf)
#> # A tibble: 500 × 7
#>     .row     y d     g_hat  m_hat   y_res   d_res
#>    <int> <int> <fct> <dbl>  <dbl>   <dbl>   <dbl>
#>  1     1  2397 TRUE  2958. 0.917   -561.   0.0827
#>  2     2  3300 TRUE  2323. 0.921    977.   0.0791
#>  3     3   713 TRUE   700. 0.972     12.9  0.0275
#>  4     4   707 TRUE   798. 0.836    -91.2  0.164 
#>  5     5   987 TRUE   711. 0.982    276.   0.0180
#>  6     6  3250 FALSE 2950. 0        300.   0     
#>  7     7  1668 FALSE 1634. 0.317     33.7 -0.317 
#>  8     8  1771 FALSE 2441. 0.0753  -670.  -0.0753
#>  9     9  1053 TRUE  1021. 0.988     31.7  0.0120
#> 10    10  4640 FALSE 6643. 0.072  -2003.  -0.072 
#> # ℹ 490 more rows
…
