Extract feature importance • tiDML
…
tiDML’s get_feature_coefs() function is a wrapper around
this which maps across all cross folds to give a single tibble with
coefficients for all folds and reps.

fit_lasso <- dml_enet(
  data = df,
  y = "price",
  d = "is_rated_ideal",
  x = c("carat", "depth", "table", "x", "y", "z"),
  store_models = TRUE,
  mixture = 1
)

get_feature_coefs(fit_lasso)
#> # A tibble: 35 × 5
#>     fold model     term        estimate penalty
#>    <int> <chr>     <chr>          <dbl>   <dbl>
#>  1     1 treatment (Intercept)  88.6       0.01
#>  2     1 treatment carat        -0.409     0.01
#>  3     1 treatment depth        -0.587     0.01
#>  4     1 treatment table        -0.918     0.01
#>  5     1 treatment x             0         0.01
#>  6     1 treatment y             0         0.01
#>  7     1 treatment z            -0.0137    0.01
#>  8     2 treatment (Intercept)  98.3       0.01
#>  9     2 treatment carat        -0.677     0.01
#> 10     2 treatment depth        -0.699     0.01
#> # ℹ 25 more rows
…
Feature importance can be only be extracted for tree based models
(decision trees, random forests, or gradient boosted trees). The
function get_feature_importance() extracts feature
importance measures from all the fitted models and returns a tidy data
frame.

feature_importance <- get_feature_importance(fit_rf, model = "outcome")
#> Warning: Unknown or uninitialised column: `id2`.
#> Unknown or uninitialised column: `id2`.
#> Unknown or uninitialised column: `id2`.
#> Unknown or uninitialised column: `id2`.
#> Unknown or uninitialised column: `id2`.

print(feature_importance)
#> # A tibble: 30 × 3
#>    rep   variable  importance
#>    <chr> <chr>          <dbl>
#>  1 Fold1 carat    1734464833.
#>  2 Fold1 depth     127880049.
#>  3 Fold1 table      89751947.
#>  4 Fold1 x        1316805359.
#>  5 Fold1 y        1776542407.
#>  6 Fold1 z        1183376993.
#>  7 Fold2 carat    1284648350.
#>  8 Fold2 depth     114125800.
#>  9 Fold2 table      79570451.
#> 10 Fold2 x        1231529000.
#> # ℹ 20 more rows
…
